{
	"info": {
		"_postman_id": "4ceedca5-4775-4e1b-aaa7-8429dad95916",
		"name": "Capstone2",
		"schema": "https://schema.getpostman.com/json/collection/v2.1.0/collection.json"
	},
	"item": [
		{
			"name": "User",
			"item": [
				{
					"name": "check email",
					"request": {
						"method": "POST",
						"header": [],
						"url": {
							"raw": "localhost:4000/users/checkEmail",
							"host": [
								"localhost"
							],
							"port": "4000",
							"path": [
								"users",
								"checkEmail"
							]
						}
					},
					"response": []
				},
				{
					"name": "register user",
					"request": {
						"method": "POST",
						"header": [],
						"body": {
							"mode": "raw",
							"raw": "{\r\n    \"firstName\": \"John\",\r\n    \"lastName\": \"Puruntong\",\r\n    \"email\": \"john.mail.com\",\r\n    \"password\": \"123456\",\r\n    \"isAdmin\": true\r\n}",
							"options": {
								"raw": {
									"language": "json"
								}
							}
						},
						"url": {
							"raw": "localhost:4000/users/register",
							"host": [
								"localhost"
							],
							"port": "4000",
							"path": [
								"users",
								"register"
							]
						}
					},
					"response": []
				},
				{
					"name": "login",
					"request": {
						"auth": {
							"type": "noauth"
						},
						"method": "POST",
						"header": [],
						"body": {
							"mode": "raw",
							"raw": "{\r\n    \"email\": \"john@mail.com\",\r\n    \"password\": \"123456\"\r\n}",
							"options": {
								"raw": {
									"language": "json"
								}
							}
						},
						"url": {
							"raw": "http://localhost:4000/users/login",
							"protocol": "http",
							"host": [
								"localhost"
							],
							"port": "4000",
							"path": [
								"users",
								"login"
							]
						}
					},
					"response": []
				},
				{
					"name": "get details",
					"protocolProfileBehavior": {
						"disableBodyPruning": true
					},
					"request": {
						"auth": {
							"type": "bearer",
							"bearer": [
								{
									"key": "token",
									"value": "eyJhbGciOiJIUzI1NiIsInR5cCI6IkpXVCJ9.eyJpZCI6IjY0ODk4MTVkNGEyYTM4NmIzZjQ5MWJiNSIsImVtYWlsIjoiam9obkBtYWlsLmNvbSIsImlzQWRtaW4iOnRydWUsImlhdCI6MTY4NjkzNDc3Nn0.hJglYd-oNLsROY3hbHoxaN5ELQ5MzHuTZSx-heXIgK4",
									"type": "string"
								}
							]
						},
						"method": "GET",
						"header": [],
						"body": {
							"mode": "raw",
							"raw": "{\r\n    \"id\": \"648c949f2250fda89a49890a\"\r\n}",
							"options": {
								"raw": {
									"language": "json"
								}
							}
						},
						"url": {
							"raw": "http://localhost:4000/users/details",
							"protocol": "http",
							"host": [
								"localhost"
							],
							"port": "4000",
							"path": [
								"users",
								"details"
							]
						}
					},
					"response": []
				},
				{
					"name": "set as admin",
					"request": {
						"auth": {
							"type": "bearer",
							"bearer": [
								{
									"key": "token",
									"value": "eyJhbGciOiJIUzI1NiIsInR5cCI6IkpXVCJ9.eyJpZCI6IjY0ODk4MTVkNGEyYTM4NmIzZjQ5MWJiNSIsImVtYWlsIjoiam9obkBtYWlsLmNvbSIsImlzQWRtaW4iOnRydWUsImlhdCI6MTY4NjkxNzk0Nn0.n1jzwvjWsReBMr2G72DxF52xswWnN-NiblZ_5qVr3uU",
									"type": "string"
								}
							]
						},
						"method": "PUT",
						"header": [],
						"url": {
							"raw": "localhost:4000/users/64898cac8b832f251443656d/setAsAdmin",
							"host": [
								"localhost"
							],
							"port": "4000",
							"path": [
								"users",
								"64898cac8b832f251443656d",
								"setAsAdmin"
							]
						}
					},
					"response": []
				}
			]
		},
		{
			"name": "Product",
			"item": [
				{
					"name": "create product",
					"request": {
						"auth": {
							"type": "bearer",
							"bearer": [
								{
									"key": "token",
									"value": "eyJhbGciOiJIUzI1NiIsInR5cCI6IkpXVCJ9.eyJpZCI6IjY0ODk4MTVkNGEyYTM4NmIzZjQ5MWJiNSIsImVtYWlsIjoiam9obkBtYWlsLmNvbSIsImlzQWRtaW4iOnRydWUsImlhdCI6MTY4Njc0NjcyOX0.FAImIIlybOHKPholHUyhehlBMSWpaUILMFJ4i-cN4t4",
									"type": "string"
								}
							]
						},
						"method": "POST",
						"header": [],
						"body": {
							"mode": "raw",
							"raw": "{\r\n    \"name\": \"Barako Beans\",\r\n    \"description\": \"Barako coffee has strong taste and flavor with a distinctively pungent aroma. It can be drunk black or sweetened with sugar or honey. It can be drunk alone or blended with other coffee varieties. Barako coffee was first planted in Batangas, Luzon, Philippines by Spanish friars in the 18th century.\",\r\n    \"price\": 800\r\n}",
							"options": {
								"raw": {
									"language": "json"
								}
							}
						},
						"url": {
							"raw": "localhost:4000/products",
							"host": [
								"localhost"
							],
							"port": "4000",
							"path": [
								"products"
							]
						}
					},
					"response": []
				},
				{
					"name": "get all products",
					"request": {
						"method": "GET",
						"header": [],
						"url": {
							"raw": "localhost:4000/products/all",
							"host": [
								"localhost"
							],
							"port": "4000",
							"path": [
								"products",
								"all"
							]
						}
					},
					"response": []
				},
				{
					"name": "get all active",
					"request": {
						"method": "GET",
						"header": [],
						"url": {
							"raw": "localhost:4000/products",
							"host": [
								"localhost"
							],
							"port": "4000",
							"path": [
								"products"
							]
						}
					},
					"response": []
				},
				{
					"name": "get specific product",
					"request": {
						"method": "GET",
						"header": [],
						"url": {
							"raw": "http://localhost:4000/products/6489aff49ac484f0a4870fa0",
							"protocol": "http",
							"host": [
								"localhost"
							],
							"port": "4000",
							"path": [
								"products",
								"6489aff49ac484f0a4870fa0"
							]
						}
					},
					"response": []
				},
				{
					"name": "update products",
					"request": {
						"auth": {
							"type": "bearer",
							"bearer": [
								{
									"key": "token",
									"value": "eyJhbGciOiJIUzI1NiIsInR5cCI6IkpXVCJ9.eyJpZCI6IjY0ODk4MTVkNGEyYTM4NmIzZjQ5MWJiNSIsImVtYWlsIjoiam9obkBtYWlsLmNvbSIsImlzQWRtaW4iOnRydWUsImlhdCI6MTY4Njc1NjYwN30.TjutaJBbppQCnBBx_9IpZyR6NpluH-kMsnT-qndBsHU",
									"type": "string"
								}
							]
						},
						"method": "PUT",
						"header": [],
						"body": {
							"mode": "raw",
							"raw": "{\r\n    \"isActive\": false\r\n}",
							"options": {
								"raw": {
									"language": "json"
								}
							}
						},
						"url": {
							"raw": "localhost:4000/products/6489b8e004f7f79edc08798b",
							"host": [
								"localhost"
							],
							"port": "4000",
							"path": [
								"products",
								"6489b8e004f7f79edc08798b"
							]
						}
					},
					"response": []
				},
				{
					"name": "archive product",
					"request": {
						"auth": {
							"type": "bearer",
							"bearer": [
								{
									"key": "token",
									"value": "eyJhbGciOiJIUzI1NiIsInR5cCI6IkpXVCJ9.eyJpZCI6IjY0ODk4MTVkNGEyYTM4NmIzZjQ5MWJiNSIsImVtYWlsIjoiam9obkBtYWlsLmNvbSIsImlzQWRtaW4iOnRydWUsImlhdCI6MTY4NjkzNDc3Nn0.hJglYd-oNLsROY3hbHoxaN5ELQ5MzHuTZSx-heXIgK4",
									"type": "string"
								}
							]
						},
						"method": "PUT",
						"header": [],
						"url": {
							"raw": "localhost:4000/products/6489b91004f7f79edc08798d/archive",
							"host": [
								"localhost"
							],
							"port": "4000",
							"path": [
								"products",
								"6489b91004f7f79edc08798d",
								"archive"
							]
						}
					},
					"response": []
				},
				{
					"name": "activate product",
					"request": {
						"auth": {
							"type": "bearer",
							"bearer": [
								{
									"key": "token",
									"value": "eyJhbGciOiJIUzI1NiIsInR5cCI6IkpXVCJ9.eyJpZCI6IjY0ODk4MTVkNGEyYTM4NmIzZjQ5MWJiNSIsImVtYWlsIjoiam9obkBtYWlsLmNvbSIsImlzQWRtaW4iOnRydWUsImlhdCI6MTY4NjgwNzcxNX0.0XocXpmcy1xoEF4mQOFsyvMgYVSNXuMdAiQNGVxzpw4",
									"type": "string"
								}
							]
						},
						"method": "PUT",
						"header": [],
						"url": {
							"raw": "localhost:4000/products/6489b89804f7f79edc087989/activate",
							"host": [
								"localhost"
							],
							"port": "4000",
							"path": [
								"products",
								"6489b89804f7f79edc087989",
								"activate"
							]
						}
					},
					"response": []
				}
			]
		},
		{
			"name": "Order",
			"item": [
				{
					"name": "create order",
					"request": {
						"method": "POST",
						"header": [],
						"body": {
							"mode": "raw",
							"raw": "{\r\n    \"userId\": \"64898cac8b832f251443656d\",\r\n    \"productId\": \"6489b7f404f7f79edc087986\",\r\n    \"quantity\" : 5\r\n}",
							"options": {
								"raw": {
									"language": "json"
								}
							}
						},
						"url": {
							"raw": "localhost:4000/orders/createOrder",
							"host": [
								"localhost"
							],
							"port": "4000",
							"path": [
								"orders",
								"createOrder"
							]
						}
					},
					"response": []
				},
				{
					"name": "get all orders",
					"request": {
						"auth": {
							"type": "bearer",
							"bearer": [
								{
									"key": "token",
									"value": "eyJhbGciOiJIUzI1NiIsInR5cCI6IkpXVCJ9.eyJpZCI6IjY0ODk4Y2FjOGI4MzJmMjUxNDQzNjU2ZCIsImVtYWlsIjoiam9obm55NUBtYWlsLmNvbSIsImlzQWRtaW4iOmZhbHNlLCJpYXQiOjE2ODY5MTEzMTB9.19LMO8LSE3w7hHM58HM03Gsc3cZmr4_UNDCDB1duRJg",
									"type": "string"
								}
							]
						},
						"method": "GET",
						"header": [],
						"url": {
							"raw": "localhost:4000/orders/allOrders",
							"host": [
								"localhost"
							],
							"port": "4000",
							"path": [
								"orders",
								"allOrders"
							]
						}
					},
					"response": []
				}
			]
		}
	]
}